trip_id,arrival_time,departure_time,stop_id,stop_sequence
1,08:00:00,08:00:00,2,1
1,08:10:00,08:10:00,1,2
2,08:00:00,08:00:00,1,1
2,08:10:00,08:10:00,2,2
3,17:00:00,17:00:00,2,1
3,17:10:00,17:10:00,1,2
4,17:00:00,17:00:00,1,1
4,17:10:00,17:10:00,2,2